2014.03.19 17:49;3;39,0;0,0;101,2
2014.03.19 18:46;3;39,0;36,0;101,3
2014.03.19 19:47;5;38,0;36,0;101,2
2014.03.19 20:47;7;38,0;35,2;101,1
2014.03.19 21:46;4;38,0;34,4;101,1
2014.03.19 22:46;12;37,0;34,4;101,2
2014.03.19 23:46;11;37,0;33,6;101,2
2014.03.20 00:46;7;37,0;34,8;101,2
2014.03.20 01:46;8;37,0;34,0;101,2
2014.03.20 02:46;3;37,0;33,6;101,2
2014.03.20 03:46;7;37,0;34,8;100,9
2014.03.20 04:46;7;37,0;34,4;101,0
2014.03.20 05:46;8;37,0;33,6;101,2
2014.03.20 06:46;13;36,0;34,4;100,8
2014.03.20 07:46;4;36,0;34,8;100,9
2014.03.20 08:46;3;36,0;34,4;100,8
2014.03.20 09:46;9;37,0;34,8;100,8
2014.03.20 10:46;10;38,0;34,8;100,6
2014.03.20 11:46;6;39,0;35,6;100,5
2014.03.20 12:46;4;40,0;36,4;100,6
2014.03.20 13:46;7;40,0;37,2;100,4
2014.03.20 14:46;6;41,0;37,2;100,3
2014.03.20 15:47;8;42,0;37,6;100,2
2014.03.20 16:47;5;42,0;37,2;100,2
2014.03.20 17:47;5;41,0;36,4;100,1
2014.03.20 18:47;2;41,0;36,0;100,3
2014.03.20 19:47;4;41,0;35,6;100,2
2014.03.20 20:47;6;40,0;36,0;100,0
2014.03.20 21:47;3;40,0;36,0;100,3
2014.03.20 22:47;6;40,0;35,2;100,3
2014.03.20 23:47;6;40,0;34,8;100,3
2014.03.21 00:47;4;39,0;34,8;100,5
2014.03.21 01:47;4;39,0;35,2;100,2
2014.03.21 02:46;7;39,0;35,2;100,3
2014.03.21 03:46;8;38,0;35,2;100,2
2014.03.21 04:46;5;38,0;35,2;100,7
2014.03.21 05:46;7;38,0;34,0;100,7
2014.03.21 06:46;4;37,0;34,0;100,8
2014.03.21 07:46;6;37,0;34,4;100,9
2014.03.21 08:46;4;36,0;34,4;101,1
2014.03.21 09:46;5;36,0;34,4;101,1
2014.03.21 10:46;3;37,0;34,4;101,2
2014.03.21 11:46;10;38,0;35,2;101,4
2014.03.21 12:46;9;38,0;34,8;101,5
2014.03.21 13:46;9;39,0;36,0;101,4
2014.03.21 14:46;5;39,0;34,8;101,4
2014.03.21 15:46;4;39,0;34,8;101,4
2014.03.21 16:46;3;39,0;34,8;101,5
2014.03.21 17:46;6;38,0;32,8;101,7
2014.03.21 18:46;6;38,0;33,6;101,7
2014.03.21 19:46;8;37,0;32,8;102,0
2014.03.21 20:46;5;36,0;32,4;102,0
2014.03.21 21:46;4;36,0;31,6;102,0
2014.03.21 22:46;7;35,0;31,6;102,0
2014.03.21 23:46;4;35,0;31,2;102,1
2014.03.22 00:45;5;35,0;30,8;102,2
2014.03.22 01:45;4;35,0;30,8;102,3
2014.03.22 02:45;5;34,0;30,0;102,0
2014.03.22 03:45;5;34,0;30,8;102,2
2014.03.22 04:45;3;33,0;29,6;102,4
2014.03.22 05:45;12;33,0;30,4;102,3
2014.03.22 06:45;6;33,0;30,0;102,5
2014.03.22 07:45;8;33,0;30,0;102,4
2014.03.22 08:45;4;33,0;29,6;102,5
2014.03.22 09:45;4;34,0;30,4;102,6
2014.03.22 10:45;8;35,0;31,2;102,7
2014.03.22 11:46;8;36,0;31,6;102,4
2014.03.22 12:46;6;37,0;31,6;102,3
2014.03.22 13:46;5;38,0;31,6;102,2
2014.03.22 14:46;7;39,0;32,0;102,1
2014.03.22 15:46;5;39,0;32,0;102,1
2014.03.22 16:46;8;39,0;32,0;102,0
2014.03.22 17:46;8;39,0;31,6;102,0
2014.03.22 18:46;6;39,0;31,6;102,2
2014.03.22 19:46;11;38,0;31,2;102,3
2014.03.22 20:46;12;38,0;30,4;102,1
2014.03.22 21:46;10;37,0;31,2;102,2
2014.03.22 22:46;5;37,0;30,4;102,1
2014.03.22 23:46;9;36,0;30,0;102,0
2014.03.23 00:45;12;36,0;29,6;101,9
2014.03.23 01:46;5;36,0;29,6;101,9
2014.03.23 02:45;11;35,0;30,0;101,9
2014.03.23 03:45;5;35,0;30,0;101,8
2014.03.23 04:45;3;35,0;30,4;101,9
2014.03.23 05:45;7;34,0;29,6;102,0
2014.03.23 06:45;2;34,0;30,0;101,9
2014.03.23 07:45;9;34,0;30,0;101,8
2014.03.23 08:45;5;35,0;29,6;101,9
2014.03.23 09:45;2;36,0;30,0;101,8
2014.03.23 10:45;8;37,0;30,8;101,9
2014.03.23 11:46;3;38,0;32,4;101,7
2014.03.23 12:46;10;39,0;32,8;101,6
;;;;
