;Norad CSV Log File : 42428716
;Company : 12345678

;Probe Serial : 10102
;Sensitivity : 2175

;Test : 4
;Entries : 52

;DATE; A;T;H;P; TLT;POW; CODE;SUB
;2016.01.27 17:11; ;;;; ;;  SOT;MANL
2016.01.27 18:11; 16;22;23.6;100.17; 0;0; MEA;
2016.01.27 19:11; 29;23;22.8;100.18; 0;0; MEA;
2016.01.27 20:11; 31;23;23.2;100.18; 0;0; MEA;
2016.01.27 21:11; 30;23;22.4;100.25; 0;0; MEA;
2016.01.27 22:11; 32;23;22.8;100.28; 0;0; MEA;
2016.01.27 23:11; 34;23;22.8;100.32; 0;0; MEA;
2016.01.28 00:11; 38;23;22.0;100.28; 0;0; MEA;
2016.01.28 01:11; 39;23;22.8;100.07; 0;0; MEA;
2016.01.28 02:11; 37;23;22.8;100.21; 0;0; MEA;
2016.01.28 03:11; 27;23;22.8;100.25; 0;0; MEA;
2016.01.28 04:11; 32;23;22.8;100.21; 0;0; MEA;
2016.01.28 05:11; 38;23;23.2;100.35; 0;0; MEA;
2016.01.28 06:11; 31;23;22.8;100.31; 0;0; MEA;
2016.01.28 07:11; 35;23;22.8;100.31; 0;0; MEA;
2016.01.28 08:11; 23;23;22.8;100.49; 0;0; MEA;
2016.01.28 09:11; 25;23;22.8;100.77; 0;0; MEA;
2016.01.28 10:11; 25;23;23.2;100.77; 0;0; MEA;
2016.01.28 11:11; 18;23;23.2;100.77; 0;0; MEA;
2016.01.28 12:11; 31;23;23.2;100.77; 0;0; MEA;
2016.01.28 13:11; 21;23;23.2;100.87; 0;0; MEA;
2016.01.28 14:11; 22;23;22.8;100.73; 0;0; MEA;
2016.01.28 15:11; 35;23;22.8;100.80; 0;0; MEA;
2016.01.28 16:11; 28;23;22.0;100.77; 0;0; MEA;
2016.01.28 17:11; 36;23;23.2;100.77; 0;0; MEA;
2016.01.28 18:11; 37;23;22.8;100.66; 0;0; MEA;
2016.01.28 19:11; 32;23;22.8;100.77; 0;0; MEA;
2016.01.28 20:11; 25;23;23.2;100.77; 0;0; MEA;
2016.01.28 21:11; 26;23;23.2;100.80; 0;0; MEA;
2016.01.28 22:11; 41;23;23.2;100.63; 0;0; MEA;
2016.01.28 23:11; 26;23;23.2;100.77; 0;0; MEA;
2016.01.29 00:11; 26;23;23.2;100.73; 0;0; MEA;
2016.01.29 01:11; 36;23;22.8;100.59; 0;0; MEA;
2016.01.29 02:11; 36;23;22.4;100.69; 0;0; MEA;
2016.01.29 03:11; 36;23;22.8;100.69; 0;0; MEA;
2016.01.29 04:11; 41;23;23.2;100.66; 0;0; MEA;
2016.01.29 05:11; 35;23;22.8;100.66; 0;0; MEA;
2016.01.29 06:11; 39;22;22.8;100.56; 0;0; MEA;
2016.01.29 07:11; 36;22;22.8;100.24; 0;0; MEA;
2016.01.29 08:11; 49;22;23.2;100.24; 0;0; MEA;
2016.01.29 09:11; 31;22;23.2;100.35; 0;0; MEA;
2016.01.29 10:11; 37;22;22.8;100.21; 0;0; MEA;
2016.01.29 11:11; 42;22;22.8;100.21; 0;0; MEA;
2016.01.29 12:11; 28;22;22.8;100.21; 0;0; MEA;
2016.01.29 13:11; 41;22;22.8;100.07; 0;0; MEA;
2016.01.29 14:11; 33;22;23.2;99.86; 0;0; MEA;
2016.01.29 15:11; 24;23;22.8;99.72; 0;0; MEA;
2016.01.29 16:11; 29;23;22.4;99.59; 0;0; MEA;
2016.01.29 17:11; 31;23;22.4;99.62; 0;0; MEA;
2016.01.29 18:11; 28;23;22.4;99.24; 0;0; MEA;
;2016.01.29 18:21; ;;;; ;;  EOT;ABRT
;2016.01.29 18:43; ;;;; ;;  RST;

;CSV Integrity Code : 524FC470
